zad2/top.vcd
$date
  Fri May 26 15:37:08 2023
$end
$version
  GHDL v0
$end
$timescale
  1 fs
$end
$scope module standard $end
$upscope $end
$scope module std_logic_1164 $end
$upscope $end
$scope module numeric_std $end
$upscope $end
$scope module top_tb $end
$var reg 1 ! fclk $end
$var reg 1 " insig $end
$var reg 8 # avrval[7:0] $end
$scope module main_tb $end
$var reg 1 $ insig $end
$var reg 8 % avrval[7:0] $end
$var reg 1 & fclk $end
$var integer 32 ' highcnt $end
$var integer 32 ( cnt $end
$upscope $end
$upscope $end
$enddefinitions $end
#0
0!
0"
b00000000 #
0$
b00000000 %
0&
b0 '
b1 (
#500000
1!
1&
#1000000
0!
0&
b10 (
#1500000
1!
1&
#2000000
0!
0&
b11 (
#2500000
1!
1&
#3000000
0!
0&
b100 (
#3500000
1!
1&
#4000000
0!
0&
b101 (
#4500000
1!
1&
#5000000
0!
0&
b110 (
#5500000
1!
1&
#6000000
0!
0&
b111 (
#6500000
1!
1&
#7000000
0!
0&
b1000 (
#7500000
1!
1&
#8000000
0!
0&
b1001 (
#8500000
1!
1&
#9000000
0!
0&
b1010 (
#9500000
1!
1&
#10000000
0!
0&
b1011 (
#10500000
1!
1&
#11000000
0!
0&
b1100 (
#11500000
1!
1&
#12000000
0!
0&
b1101 (
#12500000
1!
1&
#13000000
0!
0&
b1110 (
#13500000
1!
1&
#14000000
0!
0&
b1111 (
#14500000
1!
1&
#15000000
0!
0&
b10000 (
#15500000
1!
1&
#16000000
0!
0&
b10001 (
#16500000
1!
1&
#17000000
0!
0&
b10010 (
#17500000
1!
1&
#18000000
0!
0&
b10011 (
#18500000
1!
1&
#19000000
0!
0&
b10100 (
#19500000
1!
1&
#20000000
0!
1"
1$
0&
b1 '
b10101 (
#20500000
1!
1&
#21000000
0!
0&
b10 '
b10110 (
#21500000
1!
1&
#22000000
0!
0&
b11 '
b10111 (
#22500000
1!
1&
#23000000
0!
0&
b100 '
b11000 (
#23500000
1!
1&
#24000000
0!
0&
b101 '
b11001 (
#24500000
1!
1&
#25000000
0!
0&
b110 '
b11010 (
#25500000
1!
1&
#26000000
0!
0&
b111 '
b11011 (
#26500000
1!
1&
#27000000
0!
0&
b1000 '
b11100 (
#27500000
1!
1&
#28000000
0!
0&
b1001 '
b11101 (
#28500000
1!
1&
#29000000
0!
0&
b1010 '
b11110 (
#29500000
1!
1&
#30000000
0!
0&
b1011 '
b11111 (
#30500000
1!
1&
#31000000
0!
0&
b1100 '
b100000 (
#31500000
1!
1&
#32000000
0!
0&
b1101 '
b100001 (
#32500000
1!
1&
#33000000
0!
0&
b1110 '
b100010 (
#33500000
1!
1&
#34000000
0!
0&
b1111 '
b100011 (
#34500000
1!
1&
#35000000
0!
0&
b10000 '
b100100 (
#35500000
1!
1&
#36000000
0!
0&
b10001 '
b100101 (
#36500000
1!
1&
#37000000
0!
0&
b10010 '
b100110 (
#37500000
1!
1&
#38000000
0!
0&
b10011 '
b100111 (
#38500000
1!
1&
#39000000
0!
0&
b10100 '
b101000 (
#39500000
1!
1&
#40000000
0!
0"
b00110010 #
0$
b00110010 %
0&
b0 '
b1 (
#40500000
1!
1&
#41000000
0!
0&
b10 (
#41500000
1!
1&
#42000000
0!
0&
b11 (
#42500000
1!
1&
#43000000
0!
0&
b100 (
#43500000
1!
1&
#44000000
0!
0&
b101 (
#44500000
1!
1&
#45000000
0!
0&
b110 (
#45500000
1!
1&
#46000000
0!
0&
b111 (
#46500000
1!
1&
#47000000
0!
0&
b1000 (
#47500000
1!
1&
#48000000
0!
0&
b1001 (
#48500000
1!
1&
#49000000
0!
0&
b1010 (
#49500000
1!
1&
#50000000
0!
0&
b1011 (
#50500000
1!
1&
#51000000
0!
0&
b1100 (
#51500000
1!
1&
#52000000
0!
0&
b1101 (
#52500000
1!
1&
#53000000
0!
0&
b1110 (
#53500000
1!
1&
#54000000
0!
0&
b1111 (
#54500000
1!
1&
#55000000
0!
0&
b10000 (
#55500000
1!
1&
#56000000
0!
0&
b10001 (
#56500000
1!
1&
#57000000
0!
0&
b10010 (
#57500000
1!
1&
#58000000
0!
0&
b10011 (
#58500000
1!
1&
#59000000
0!
0&
b10100 (
#59500000
1!
1&
#60000000
0!
1"
1$
0&
b1 '
b10101 (
#60500000
1!
1&
#61000000
0!
0&
b10 '
b10110 (
#61500000
1!
1&
#62000000
0!
0&
b11 '
b10111 (
#62500000
1!
1&
#63000000
0!
0&
b100 '
b11000 (
#63500000
1!
1&
#64000000
0!
0&
b101 '
b11001 (
#64500000
1!
1&
#65000000
0!
0&
b110 '
b11010 (
#65500000
1!
1&
#66000000
0!
0&
b111 '
b11011 (
#66500000
1!
1&
#67000000
0!
0&
b1000 '
b11100 (
#67500000
1!
1&
#68000000
0!
0&
b1001 '
b11101 (
#68500000
1!
1&
#69000000
0!
0&
b1010 '
b11110 (
#69500000
1!
1&
#70000000
0!
0&
b1011 '
b11111 (
#70500000
1!
1&
#71000000
0!
0&
b1100 '
b100000 (
#71500000
1!
1&
#72000000
0!
0&
b1101 '
b100001 (
#72500000
1!
1&
#73000000
0!
0&
b1110 '
b100010 (
#73500000
1!
1&
#74000000
0!
0&
b1111 '
b100011 (
#74500000
1!
1&
#75000000
0!
0&
b10000 '
b100100 (
#75500000
1!
1&
#76000000
0!
0&
b10001 '
b100101 (
#76500000
1!
1&
#77000000
0!
0&
b10010 '
b100110 (
#77500000
1!
1&
#78000000
0!
0&
b10011 '
b100111 (
#78500000
1!
1&
#79000000
0!
0&
b10100 '
b101000 (
#79500000
1!
1&
#80000000
0!
0&
b10101 '
b101001 (
#80500000
1!
1&
#81000000
0!
0&
b10110 '
b101010 (
#81500000
1!
1&
#82000000
0!
0&
b10111 '
b101011 (
#82500000
1!
1&
#83000000
0!
0&
b11000 '
b101100 (
#83500000
1!
1&
#84000000
0!
0&
b11001 '
b101101 (
#84500000
1!
1&
#85000000
0!
0&
b11010 '
b101110 (
#85500000
1!
1&
#86000000
0!
0&
b11011 '
b101111 (
#86500000
1!
1&
#87000000
0!
0&
b11100 '
b110000 (
#87500000
1!
1&
#88000000
0!
0&
b11101 '
b110001 (
#88500000
1!
1&
#89000000
0!
0&
b11110 '
b110010 (
#89500000
1!
1&
#90000000
0!
0&
b11111 '
b110011 (
#90500000
1!
1&
#91000000
0!
0&
b100000 '
b110100 (
#91500000
1!
1&
#92000000
0!
0&
b100001 '
b110101 (
#92500000
1!
1&
#93000000
0!
0&
b100010 '
b110110 (
#93500000
1!
1&
#94000000
0!
0&
b100011 '
b110111 (
#94500000
1!
1&
#95000000
0!
0&
b100100 '
b111000 (
#95500000
1!
1&
#96000000
0!
0&
b100101 '
b111001 (
#96500000
1!
1&
#97000000
0!
0&
b100110 '
b111010 (
#97500000
1!
1&
#98000000
0!
0&
b100111 '
b111011 (
#98500000
1!
1&
#99000000
0!
0&
b101000 '
b111100 (
#99500000
1!
1&
#100000000
0!
0&
b101001 '
b111101 (
#100500000
1!
1&
#101000000
0!
0&
b101010 '
b111110 (
#101500000
1!
1&
#102000000
0!
0&
b101011 '
b111111 (
#102500000
1!
1&
#103000000
0!
0&
b101100 '
b1000000 (
#103500000
1!
1&
#104000000
0!
0&
b101101 '
b1000001 (
#104500000
1!
1&
#105000000
0!
0&
b101110 '
b1000010 (
#105500000
1!
1&
#106000000
0!
0&
b101111 '
b1000011 (
#106500000
1!
1&
#107000000
0!
0&
b110000 '
b1000100 (
#107500000
1!
1&
#108000000
0!
0&
b110001 '
b1000101 (
#108500000
1!
1&
#109000000
0!
0&
b110010 '
b1000110 (
#109500000
1!
1&
#110000000
0!
0&
b110011 '
b1000111 (
#110500000
1!
1&
#111000000
0!
0&
b110100 '
b1001000 (
#111500000
1!
1&
#112000000
0!
0&
b110101 '
b1001001 (
#112500000
1!
1&
#113000000
0!
0&
b110110 '
b1001010 (
#113500000
1!
1&
#114000000
0!
0&
b110111 '
b1001011 (
#114500000
1!
1&
#115000000
0!
0&
b111000 '
b1001100 (
#115500000
1!
1&
#116000000
0!
0&
b111001 '
b1001101 (
#116500000
1!
1&
#117000000
0!
0&
b111010 '
b1001110 (
#117500000
1!
1&
#118000000
0!
0&
b111011 '
b1001111 (
#118500000
1!
1&
#119000000
0!
0&
b111100 '
b1010000 (
#119500000
1!
1&
#120000000
0!
0"
b01001011 #
0$
b01001011 %
0&
b0 '
b1 (
#120500000
1!
1&
#121000000
0!
0&
b10 (
#121500000
1!
1&
#122000000
0!
0&
b11 (
#122500000
1!
1&
#123000000
0!
0&
b100 (
#123500000
1!
1&
#124000000
0!
0&
b101 (
#124500000
1!
1&
#125000000
0!
0&
b110 (
#125500000
1!
1&
#126000000
0!
0&
b111 (
#126500000
1!
1&
#127000000
0!
0&
b1000 (
#127500000
1!
1&
#128000000
0!
0&
b1001 (
#128500000
1!
1&
#129000000
0!
0&
b1010 (
#129500000
1!
1&
#130000000
0!
1"
1$
0&
b1 '
b1011 (
#130500000
1!
1&
#131000000
0!
0&
b10 '
b1100 (
#131500000
1!
1&
#132000000
0!
0&
b11 '
b1101 (
#132500000
1!
1&
#133000000
0!
0&
b100 '
b1110 (
#133500000
1!
1&
#134000000
0!
0&
b101 '
b1111 (
#134500000
1!
1&
#135000000
0!
0&
b110 '
b10000 (
#135500000
1!
1&
#136000000
0!
0&
b111 '
b10001 (
#136500000
1!
1&
#137000000
0!
0&
b1000 '
b10010 (
#137500000
1!
1&
#138000000
0!
0&
b1001 '
b10011 (
#138500000
1!
1&
#139000000
0!
0&
b1010 '
b10100 (
#139500000
1!
1&
#140000000
0!
0&
b1011 '
b10101 (
#140500000
1!
1&
#141000000
0!
0&
b1100 '
b10110 (
#141500000
1!
1&
#142000000
0!
0&
b1101 '
b10111 (
#142500000
1!
1&
#143000000
0!
0&
b1110 '
b11000 (
#143500000
1!
1&
#144000000
0!
0&
b1111 '
b11001 (
#144500000
1!
1&
#145000000
0!
0&
b10000 '
b11010 (
#145500000
1!
1&
#146000000
0!
0&
b10001 '
b11011 (
#146500000
1!
1&
#147000000
0!
0&
b10010 '
b11100 (
#147500000
1!
1&
#148000000
0!
0&
b10011 '
b11101 (
#148500000
1!
1&
#149000000
0!
0&
b10100 '
b11110 (
#149500000
1!
1&
#150000000
0!
0&
b10101 '
b11111 (
#150500000
1!
1&
#151000000
0!
0&
b10110 '
b100000 (
#151500000
1!
1&
#152000000
0!
0&
b10111 '
b100001 (
#152500000
1!
1&
#153000000
0!
0&
b11000 '
b100010 (
#153500000
1!
1&
#154000000
0!
0&
b11001 '
b100011 (
#154500000
1!
1&
#155000000
0!
0&
b11010 '
b100100 (
#155500000
1!
1&
#156000000
0!
0&
b11011 '
b100101 (
#156500000
1!
1&
#157000000
0!
0&
b11100 '
b100110 (
#157500000
1!
1&
#158000000
0!
0&
b11101 '
b100111 (
#158500000
1!
1&
#159000000
0!
0&
b11110 '
b101000 (
#159500000
1!
1&
#160000000
0!
0"
0$
0&
b0 '
b1 (
#160500000
1!
1&
#161000000
0!
0&
b10 (
#161500000
1!
1&
#162000000
0!
0&
b11 (
#162500000
1!
1&
#163000000
0!
0&
b100 (
#163500000
1!
1&
#164000000
0!
0&
b101 (
#164500000
1!
1&
#165000000
0!
0&
b110 (
#165500000
1!
1&
#166000000
0!
0&
b111 (
#166500000
1!
1&
#167000000
0!
0&
b1000 (
#167500000
1!
1&
#168000000
0!
0&
b1001 (
#168500000
1!
1&
#169000000
0!
0&
b1010 (
#169500000
1!
1&
#170000000
0!
0&
b1011 (
#170500000
1!
1&
#171000000
0!
0&
b1100 (
#171500000
1!
1&
#172000000
0!
0&
b1101 (
#172500000
1!
1&
#173000000
0!
0&
b1110 (
#173500000
1!
1&
#174000000
0!
0&
b1111 (
#174500000
1!
1&
#175000000
0!
0&
b10000 (
#175500000
1!
1&
#176000000
0!
0&
b10001 (
#176500000
1!
1&
#177000000
0!
0&
b10010 (
#177500000
1!
1&
#178000000
0!
0&
b10011 (
#178500000
1!
1&
#179000000
0!
0&
b10100 (
#179500000
1!
1&
#180000000
0!
0&
b10101 (
#180500000
1!
1&
#181000000
0!
0&
b10110 (
#181500000
1!
1&
#182000000
0!
0&
b10111 (
#182500000
1!
1&
#183000000
0!
0&
b11000 (
#183500000
1!
1&
#184000000
0!
0&
b11001 (
#184500000
1!
1&
#185000000
0!
0&
b11010 (
#185500000
1!
1&
#186000000
0!
0&
b11011 (
#186500000
1!
1&
#187000000
0!
0&
b11100 (
#187500000
1!
1&
#188000000
0!
0&
b11101 (
#188500000
1!
1&
#189000000
0!
0&
b11110 (
#189500000
1!
1&
#190000000
0!
0&
b11111 (
#190500000
1!
1&
#191000000
0!
0&
b100000 (
#191500000
1!
1&
#192000000
0!
0&
b100001 (
#192500000
1!
1&
#193000000
0!
0&
b100010 (
#193500000
1!
1&
#194000000
0!
0&
b100011 (
#194500000
1!
1&
#195000000
0!
0&
b100100 (
#195500000
1!
1&
#196000000
0!
0&
b100101 (
#196500000
1!
1&
#197000000
0!
0&
b100110 (
#197500000
1!
1&
#198000000
0!
0&
b100111 (
#198500000
1!
1&
#199000000
0!
0&
b101000 (
#199500000
1!
1&
#200000000
0!
0&
b101001 (
#200500000
1!
1&
#201000000
0!
0&
b101010 (
#201500000
1!
1&
#202000000
0!
0&
b101011 (
#202500000
1!
1&
#203000000
0!
0&
b101100 (
#203500000
1!
1&
#204000000
0!
0&
b101101 (
#204500000
1!
1&
#205000000
0!
0&
b101110 (
#205500000
1!
1&
#206000000
0!
0&
b101111 (
#206500000
1!
1&
#207000000
0!
0&
b110000 (
#207500000
1!
1&
#208000000
0!
0&
b110001 (
#208500000
1!
1&
#209000000
0!
0&
b110010 (
#209500000
1!
1&
#210000000
0!
0&
b110011 (
#210500000
1!
1&
#211000000
0!
0&
b110100 (
#211500000
1!
1&
#212000000
0!
0&
b110101 (
#212500000
1!
1&
#213000000
0!
0&
b110110 (
#213500000
1!
1&
#214000000
0!
0&
b110111 (
#214500000
1!
1&
#215000000
0!
0&
b111000 (
#215500000
1!
1&
#216000000
0!
0&
b111001 (
#216500000
1!
1&
#217000000
0!
0&
b111010 (
#217500000
1!
1&
#218000000
0!
0&
b111011 (
#218500000
1!
1&
#219000000
0!
0&
b111100 (
#219500000
1!
1&
#220000000
0!
0&
b111101 (
